<svg viewBox="0 0 22 18" fill="none" xmlns="http://www.w3.org/2000/svg">
<path d="M4 8.7C3.55817 8.7 3.2 9.05817 3.2 9.5C3.2 9.94183 3.55817 10.3 4 10.3V8.7ZM6.5 10.3C6.94183 10.3 7.3 9.94183 7.3 9.5C7.3 9.05817 6.94183 8.7 6.5 8.7V10.3ZM3 1.8H19V0.2H3V1.8ZM20.2 3V15H21.8V3H20.2ZM19 16.2H3V17.8H19V16.2ZM1.8 15V3H0.2V15H1.8ZM3 16.2C2.33726 16.2 1.8 15.6627 1.8 15H0.2C0.2 16.5464 1.4536 17.8 3 17.8V16.2ZM20.2 15C20.2 15.6627 19.6627 16.2 19 16.2V17.8C20.5464 17.8 21.8 16.5464 21.8 15H20.2ZM19 1.8C19.6627 1.8 20.2 2.33726 20.2 3H21.8C21.8 1.4536 20.5464 0.2 19 0.2V1.8ZM3 0.2C1.4536 0.2 0.2 1.4536 0.2 3H1.8C1.8 2.33726 2.33726 1.8 3 1.8V0.2ZM1 6.8H21V5.2H1V6.8ZM4 10.3H6.5V8.7H4V10.3Z" fill="currentColor"/>
</svg>
